# 
setup_vision = yes
government = monarchy
add_government_reform = autocracy_reform
government_rank = 1
primary_culture = zanite
add_accepted_culture = sun_elf
religion = bulwari_sun_cult
technology_group = tech_bulwari
capital = 607

1000.1.1 = { 
	set_estate_privilege = estate_church_indepedent_clergy 
	add_isolationism = -1
	set_country_flag = nsc_human_country_magic_prohibition
}

1443.7.4 = {
	monarch = {
		name = "Arashk IV"
		dynasty = "szel-Harklum"
		birth_date = 1417.9.14
		adm = 3
		dip = 2
		mil = 6
	}
	add_ruler_personality = strict_personality
	add_ruler_personality = calm_personality

	queen = {
		country_of_origin = F36
		name = "Yamina"
		dynasty = "szel-Azanerdu"
		birth_date = 1423.12.21
		death_date = 1492.6.8
		female = yes
		adm = 6
		dip = 3
		mil = 2
	}

	heir = {
		name = "Himmet"
		monarch_name = "Himmet II"
		dynasty = "szel-Harklum"
		birth_date = 1442.5.17
		death_date = 1502.6.8
		claim = 95
		adm = 3
		dip = 4
		mil = 2
	}
}
