
######################################################################
# Ancient God King for the a NSC incident
######################################################################
amussu_main_rebels = {

	color = { 50 85 210 }

	area = nation 				# Sticks to provinces of their religion
	government = any	
	defection = none				# Does not defect
	independence = none				# Does not strive for independence
	gfx_type = culture_province
	
	resilient = no
	reinforcing = yes
	general = yes
	smart = no
	unit_transfer = no
	will_relocate = no
	
	infantry = 0.8
	cavalry = 0
	artillery = 0.2
	
	morale = 100
	
	# Possible handle actions
	handle_action_negotiate = no
	handle_action_stability = no
	handle_action_build_core = no
	handle_action_send_missionary = no
	
	# The rebel type with the highest modifier for this province gets picked
	spawn_chance = {
		factor = 0
	}
 
 	# This is checked for EACH province in the Area of Operations
	movement_evaluation = {
		factor = 1
		modifier = {
			factor = 0
			NOT = { has_province_modifier = nsc_amussu_province }
		}
	}
 
 	# Province Scope
 	siege_won_trigger = {
		always = yes
 	}
	siege_won_effect = {
		add_permanent_province_modifier = {
			name = devasted_province
			duration = 1095
		}
	}
	
	# Country scope
	can_negotiate_trigger = {
		always = no
	}
	
	# Country scope
	can_enforce_trigger = {
		always = yes
	}
	
	# Localisation for their demands
	demands_description = "amussu_demand"
	
	# Country Scope	
	demands_enforced_effect = {
		
	}
}
