
country_decisions ={
	negotiate_castonath_patricians = {
		major = yes
		
		provinces_to_highlight = {
			OR = {
				province_id = 833
				province_id = 832
				province_id = 831	
			}
		}
		
		potential = {
			NOT = { has_country_modifier = monstrous_nation }
			NOT = { has_estate = estate_castonath_patricians }
			NOT = { has_global_flag = castonath_patricians_wiped_out }
			NOT = { has_country_flag = castonath_patricians_reinstated }
			NOT = { has_country_flag = castonath_patricians_autonomous }
			NOT = { has_country_flag = castonath_patricians_curtailing_relationship }
			OR = {
				castonath_area = {
					type = all
					owned_by = ROOT
				}
				capital_scope = {
					OR = {
						region = inner_castanor_region
						region = south_castanor_region
						region = west_castanor_region
					}
				}
			}
		}
		
		allow = {
			if = {
				limit = { ai = yes }
				castonath_area = {
					owned_by = ROOT
					is_core = ROOT
					NOT = { devastation = 1 }
				}
				is_year = 1500
			}
			else = {
				castonath_area = {
					type = all
					owned_by = ROOT
					is_core = ROOT
					NOT = { devastation = 1 }
				}
			}
			NOT = { has_adventurer_reform = yes }
		}
		
		effect = {
			country_event = {
				id = castonath_patricians_events.200
			}
		}
		
		ai_will_do = {
			factor = 1			
		}
	}
	curtail_estate_castonath_patricians = {
		major = yes
		potential = {
			has_country_flag = castonath_patricians_estate_in_power
		}
		allow = {
			stability = 1
			NOT = { num_of_rebel_armies = 1 }
			NOT = { num_of_rebel_controlled_provinces = 1 }			
			NOT = {
				estate_influence = {
					estate = estate_castonath_patricians
					influence = 60
				}				
			}
		}
		effect = {
			add_stability = -3
			831 = {
				if = {
					limit = { owned_by = ROOT }
					add_base_tax = -1
					add_base_production = -1
				}
			}
			832 = {
				if = {
					limit = { owned_by = ROOT }
					add_base_tax = -1
					add_base_production = -1
				}
			}
			833 = {
				if = {
					limit = { owned_by = ROOT }
					add_base_tax = -1
					add_base_production = -1
				}
			}
			clr_country_flag = castonath_patricians_estate_in_power
		}
		ai_will_do = {
			factor = 1
		}
	}
}