
country_decisions = {

	eordand_nation = {
		major = yes
		potential = {
			OR = {
				culture_group = eordan_ruinborn_elf
			}
			NOT = { has_country_flag = formed_eordand_flag }
			NOT = { exists = H21 } #Eordand
			OR = {
				is_former_colonial_nation = no
				AND = {
					is_former_colonial_nation = yes
					ai = no
				}
			}
			normal_or_historical_nations = yes
		}

		provinces_to_highlight = {
			OR = {
				province_id = 2007
				province_id = 2159
				province_id = 2037
				province_id = 1775
				province_id = 2022
				province_id = 2049
				province_id = 1969
				province_id = 1965
			}
			NOT = { country_or_non_sovereign_subject_holds = ROOT }
		}
		allow = {
			adm_tech = 7
			is_free_or_tributary_trigger = yes
			is_nomad = no
			is_at_war = no
			#num_of_cities = 5
			
			#Requires provinces in country or non-sovereign subject
			owns_or_non_sovereign_subject_of = 2007
			owns_or_non_sovereign_subject_of = 2159
			owns_or_non_sovereign_subject_of = 2037
			owns_or_non_sovereign_subject_of = 1775
			owns_or_non_sovereign_subject_of = 2022
			owns_or_non_sovereign_subject_of = 2049
			owns_or_non_sovereign_subject_of = 1969
			owns_or_non_sovereign_subject_of = 1965
			if = {
				limit = {
					ai = no
				}
				num_of_non_tributary_subjects = 2
			}
		}
		effect = {
			change_tag = H21
			hidden_effect = { restore_country_name = yes }
			remove_non_electors_emperors_from_empire_effect = yes
			if = {
				limit = {
					has_reform = monastic_order_reform
				}
				add_government_reform = leading_clergy_reform
			}
			if = {
				limit = {
					NOT = { government_rank = 3 }
				}
				set_government_rank = 3
			}
			swap_non_generic_missions = yes
			#Claims
			eordand_superregion = {
				limit = {
					NOT = { owned_by = ROOT }
				}
				add_permanent_claim = H21
			}
			if = {
				limit = { has_custom_ideas = no }
				country_event = { id = ideagroups.1 } #Swap Ideas
			}
			add_prestige = 50
			add_country_modifier = {
				name = "centralization_modifier"
				duration = 7300
			}
			set_country_flag = formed_eordand_flag
			country_event = { id = eordand.1 days = 1 }
			country_event = { id = eordand.2 days = 2 }
			hidden_effect = { 1804 = { add_province_triggered_modifier = merc_domandrod_lightbringers_free } }
		}
		ai_will_do = {
			factor = 1
		}
		ai_importance = 400
	}
	
	eordand_arakeprun = {
		potential = {
			tag = H21
			normal_or_historical_nations = yes
			owns_core_province = 2007
			2007 = { has_province_modifier = arakeprun_precursor_tool_deprivation }
		}
		provinces_to_highlight = {
			province_id = 2007
		}
		allow = {
			owns_core_province = 2007
			if = {
				limit = {
					ai = yes
				}
				
			}
			else = {
				adm_power = 50
				dip_power = 50
				mil_power = 50
				treasury = 1000
			}
		}
		effect = {
			add_adm_power = -50
			add_dip_power = -50
			add_mil_power = -50
			add_treasury = -1000
			2007 = {
				remove_province_modifier = arakeprun_precursor_tool_deprivation
			}
			add_prestige = 10
		}
		ai_will_do = {
			factor = 1
		}
		ai_importance = 400
	}
}