country_decisions = {
	
	# xhazobkult_sanguine_ritual = {
		# potential = {
			# religion = xhazobkult
		# }
		# allow = {
			# NOT = { has_country_modifier = xhazobkult_performed_sanguine_ritual }
			# hidden_trigger = {
				# NOT = { has_country_flag = xhazobkult_sacrifice_menu_flag }
			# }
		# }
		# effect = {
			# country_event = {
				# id = xhazobkult_events.1
			# }
		# }
		# ai_will_do = {
			# factor = 1
		# }
	# }
	
	xhazobkult_deal_with_demons = {
		potential = {
			always = no #disabled after discussion with Jay
			religion = xhazobkult
		}
		allow = {
			custom_trigger_tooltip = {
				tooltip = xhazobkult_has_not_dealt_with_demons_tt
				NOT = { has_ruler_flag = xhazobkult_dealt_with_demons }
			}
			NOT = {
				ruler_has_personality = mage_personality
			}
			patriarch_authority = 0.1
		}
		effect = {
			add_patriarch_authority = -0.1
			country_event = {
				id = xhazobkult_events.1000
			}
			hidden_effect = {
				set_ruler_flag = xhazobkult_dealt_with_demons
			}
		}
	}
	
	xhazobkult_prepare_sacrifices = {
		potential = {
			religion = xhazobkult
			NOT = { has_country_flag = xhazobkult_prepare_sacrifices_flag }
		}
		allow = {
			adm_power = 10
		}
		effect = {
			add_adm_power = -10
			custom_tooltip = xhazobkult_prepare_sacrifices_tt
			set_country_flag = xhazobkult_prepare_sacrifices_flag
		}
		ai_will_do = {
			factor = 1
		}
	}
	
	xhazobkult_execute_sacrifices = {
		potential = {
			has_country_flag = xhazobkult_prepare_sacrifices_flag
		}
		allow = {
			custom_trigger_tooltip = {
				tooltip = xhazobkult_execute_sacrifices_tt
				check_variable = {
					which = total_gathered_sacrifices
					value = 1
				}
			}
			xhazobkult_pyre = 1
		}
		effect = {
			country_event = {
				id = xhazobkult_events.1102
			}
			clr_country_flag = xhazobkult_prepare_sacrifices_flag
			every_owned_province = {
				remove_building = xhazobkult_pyre
			}
		}
		ai_will_do = {
			factor = 1
			modifier = {
				factor = 0
				NOT = {
					check_variable = {
						which = total_gathered_sacrifices
						value = 10
					}
				}
			}
		}
	}
}