
namespace = diggy_spawnable

#Began's Expedition
country_event = {
	id = diggy_spawnable.1
	title = diggy_spawnable.1.t
	desc = diggy_spawnable.1.d
	picture = ARTWORK_eventPicture
	goto = spawn_province
	
	fire_only_once = yes
	mean_time_to_happen = {
		years = 1
	}
	
	trigger = {
		is_year = 1460
		owns = 912
	}
	
	immediate = {
		hidden_effect = {
			random_province = {
				limit = {
					region = serpentreach_region
					is_empty = yes
					
					has_empty_adjacent_province = yes
					
				}
				
				save_event_target_as = spawn_province
			}
		}
	}
	
	after = {
		hidden_effect = {
			H95 = {
				add_country_modifier = {
					name = dwarovar_claimer
					duration = 9125
				}
				set_country_flag = dwarovar_claimer_setup
			}
		}
	}
	
	#Let them go
	option = {
        name = diggy_spawnable.1.a
        ai_chance = { factor = 100 }
		event_target:spawn_province = {
			create_colony = 1000
		}
		
		event_target:spawn_province = {
			cede_province = H95
		}
		
		hidden_effect = {
			H95 = {
				country_event = {
					id = anb_miscevents.8
					days = 30
				}
				west_serpentspine_superregion = {
					discover_country = PREV
				}
				set_ruler = began
			}
		}
		
		adventurer_spawnable_starting_bonus = { tag = H95 }
	}
	#Play as them
	option = {
        name = diggy_spawnable.1.b
        ai_chance = { factor = 0 }
		event_target:spawn_province = {
			create_colony = 1000
		}
		
		event_target:spawn_province = {
			cede_province = H95
		}
		
		hidden_effect = {
			H95 = {
				country_event = { 
					id = anb_miscevents.8
					days = 30
				}
				set_ruler = began
			}
		}
		
		adventurer_spawnable_starting_bonus = { tag = H95 }
		switch_tag = H95
	}
}

#Mithril-Arm Cartel
country_event = {
	id = diggy_spawnable.2
	title = diggy_spawnable.2.t
	desc = diggy_spawnable.2.d
	picture = ARTWORK_eventPicture
	goto = spawn_province
	
	fire_only_once = yes
	mean_time_to_happen = {
		years = 1
	}
	
	trigger = {
		is_year = 1470
		owns = 912
	}
	
	immediate = {
		hidden_effect = {
			random_province = {
				limit = {
					region = west_dwarovar_region
					is_empty = yes
					
					has_empty_adjacent_province = yes
					
				}
				
				save_event_target_as = spawn_province
			}
		}
	}
	
	after = {
		hidden_effect = {
			H96 = {
				add_country_modifier = {
					name = dwarovar_claimer
					duration = 9125
				}
				set_country_flag = dwarovar_claimer_setup
			}
		}
	}
	
	#Let them go
	option = {
        name = diggy_spawnable.1.a
        ai_chance = { factor = 100 }
		event_target:spawn_province = {
			create_colony = 1000
		}
		
		event_target:spawn_province = {
			cede_province = H96
		}
		
		hidden_effect = {
			H96 = {
				country_event = {
					id = anb_miscevents.8
					days = 30
				}
				west_serpentspine_superregion = {
					discover_country = PREV
				}
			}
		}
		
		adventurer_spawnable_starting_bonus = { tag = H96 }
	}
	#Play as them
	option = {
        name = diggy_spawnable.1.b
        ai_chance = { factor = 0 }
		event_target:spawn_province = {
			create_colony = 1000
		}
		
		event_target:spawn_province = {
			cede_province = H96
		}
		
		hidden_effect = {
			H96 = {
				country_event = { 
					id = anb_miscevents.8
					days = 30
				}
			}
		}
		
		adventurer_spawnable_starting_bonus = { tag = H96 }
		switch_tag = H96
	}
}

#Company of the Grudgebearers
country_event = {
	id = diggy_spawnable.3
	title = diggy_spawnable.3.t
	desc = diggy_spawnable.3.d
	picture = ARTWORK_eventPicture
	goto = spawn_province
	
	fire_only_once = yes
	mean_time_to_happen = {
		years = 1
	}
	
	trigger = {
		is_year = 1460
		owns = 62
	}
	
	immediate = {
		hidden_effect = {
			random_province = {
				limit = {
					region = middle_dwarovar_region
					is_empty = yes
					
					has_empty_adjacent_province = yes
					
				}
				
				save_event_target_as = spawn_province
			}
		}
	}
	
	after = {
		hidden_effect = {
			H97 = {
				add_country_modifier = {
					name = dwarovar_claimer
					duration = 9125
				}
				set_country_flag = dwarovar_claimer_setup
			}
		}
	}
	
	#Let them go
	option = {
        name = diggy_spawnable.1.a
        ai_chance = { factor = 100 }
		event_target:spawn_province = {
			create_colony = 1000
		}
		
		event_target:spawn_province = {
			cede_province = H97
		}
		
		hidden_effect = {
			H97 = {
				country_event = {
					id = anb_miscevents.8
					days = 30
				}
				west_serpentspine_superregion = {
					discover_country = PREV
				}
			}
		}
		
		adventurer_spawnable_starting_bonus = { tag = H97 }
	}
	#Play as them
	option = {
        name = diggy_spawnable.1.b
        ai_chance = { factor = 0 }
		event_target:spawn_province = {
			create_colony = 1000
		}
		
		event_target:spawn_province = {
			cede_province = H97
		}
		
		hidden_effect = {
			H97 = {
				country_event = { 
					id = anb_miscevents.8
					days = 30
				}
			}
		}
		
		adventurer_spawnable_starting_bonus = { tag = H97 }
		switch_tag = H97
	}
}

#Axebellow Cartel
country_event = {
	id = diggy_spawnable.4
	title = diggy_spawnable.4.t
	desc = diggy_spawnable.4.d
	picture = ARTWORK_eventPicture
	goto = spawn_province
	
	fire_only_once = yes
	mean_time_to_happen = {
		years = 1
	}
	
	trigger = {
		is_year = 1470
		owns = 62
	}
	
	immediate = {
		hidden_effect = {
			random_province = {
				limit = {
					region = tree_of_stone_region
					is_empty = yes
					
					has_empty_adjacent_province = yes
					
				}
				
				save_event_target_as = spawn_province
			}
		}
	}
	
	after = {
		hidden_effect = {
			H98 = {
				add_country_modifier = {
					name = dwarovar_claimer
					duration = 9125
				}
				set_country_flag = dwarovar_claimer_setup
			}
		}
	}
	
	#Let them go
	option = {
        name = diggy_spawnable.1.a
        ai_chance = { factor = 100 }
		event_target:spawn_province = {
			create_colony = 1000
		}
		
		event_target:spawn_province = {
			cede_province = H98
		}
		
		hidden_effect = {
			H98 = {
				country_event = {
					id = anb_miscevents.8
					days = 30
				}
				east_serpentspine_superregion = {
					discover_country = PREV
				}
			}
		}
		
		adventurer_spawnable_starting_bonus = { tag = H98 }
	}
	#Play as them
	option = {
        name = diggy_spawnable.1.b
        ai_chance = { factor = 0 }
		event_target:spawn_province = {
			create_colony = 1000
		}
		
		event_target:spawn_province = {
			cede_province = H98
		}
		
		hidden_effect = {
			H98 = {
				country_event = { 
					id = anb_miscevents.8
					days = 30
				}
			}
		}
		
		adventurer_spawnable_starting_bonus = { tag = H98 }
		switch_tag = H98
	}
}