
namespace = fey_alignment

country_event = { #Gift from the Wild
	id = fey_alignment.1
	title = fey_alignment.1.t
	desc = fey_alignment.1.d
	picture = ARTWORK_eventPicture
	
	is_triggered_only = yes
	
	trigger = {
		uses_piety = yes
	}
	
	mean_time_to_happen = {
		days = 1
	}
	
	option = {
		name = fey_alignment.1.a
		add_years_of_income = 0.15
		add_piety = 0.1
	}
	option = {
		name = fey_alignment.1.b
		add_adm_power = 10
		add_dip_power = 10
		add_mil_power = 10
		add_piety = -0.1
	}
}

country_event = { #Surprise Visit Seelie
	id = fey_alignment.2
	title = fey_alignment.2.t
	desc = fey_alignment.2.d
	picture = FEAST_eventPicture
	
	is_triggered_only = yes
	
	trigger = {
		uses_piety = yes
	}
	
	mean_time_to_happen = {
		days = 1
	}
	
	immediate = {
		hidden_effect = {
			random_owned_province = {
				limit = { is_state = yes }
				save_event_target_as = fey_prank_seelie
			}
		}
	}
	
	option = {
		name = fey_alignment.2.a
		event_target:fey_prank_seelie = {
			add_province_modifier = { name = "fey_prank_seelie1" duration = 1825 }
		}
		add_piety = 0.1
	}
	option = {
		name = fey_alignment.2.b
		event_target:fey_prank_seelie = {
			add_province_modifier = { name = "fey_prank_seelie2" duration = 1825 }
		}
		add_piety = -0.1
	}
}

country_event = { #Surprise Visit Unseelie
	id = fey_alignment.3
	title = fey_alignment.3.t
	desc = fey_alignment.3.d
	picture = KING_ASSASSINATION_eventPicture
	
	is_triggered_only = yes
	
	trigger = {
		uses_piety = yes
		has_advisor = yes
	}
	
	mean_time_to_happen = {
		days = 1
	}
	
	option = {
		name = fey_alignment.3.a
		kill_advisor = random
		random_list = {
			33 = {
				add_adm_power = 20
			}
			33 = {
				add_dip_power = 20
			}
			33 = {
				add_mil_power = 20
			}
		}
		add_piety = -0.1
	}
	option = {
		name = fey_alignment.3.b
		add_stability = -1
		add_piety = 0.1
	}
}

country_event = { #Question of Loyalty
	id = fey_alignment.4
	title = fey_alignment.4.t
	desc = fey_alignment.4.d
	picture = ACCUSATION_eventPicture
	
	is_triggered_only = yes
	
	trigger = {
		uses_piety = yes
	}
	
	mean_time_to_happen = {
		days = 1
	}
	
	option = {
		name = fey_alignment.4.a
		add_piety = 0.25
	}
	option = {
		name = fey_alignment.4.b
		add_piety = -0.25
	}
	option = {
		name = fey_alignment.4.c
		add_legitimacy = -25
		add_devotion = -15
		add_republican_tradition = -10
	}
}

country_event = { #Patron Upset
	id = fey_alignment.5
	title = fey_alignment.5.t
	desc = fey_alignment.5.d
	picture = ANGRY_SHAMANS_eventPicture
	
	is_triggered_only = yes
	
	trigger = {
		uses_piety = yes
		OR = {
			piety = 0.75
			NOT = { piety = -0.75 }
		}
	}
	
	mean_time_to_happen = {
		days = 1
	}
	
	option = {
		name = fey_alignment.5.a
		if = {
			limit = { piety = 0.75 }
			add_piety = 0.1
		}
		if = {
			limit = { NOT = { piety = -0.75 }}
			add_piety = -0.1
		}
		add_adm_power = -50
		add_dip_power = -50
		add_mil_power = -50
	}
	option = {
		name = fey_alignment.5.b
		if = {
			limit = { piety = 0.75 }
			add_piety = -0.5
		}
		if = {
			limit = { NOT = { piety = -0.75 }}
			add_piety = 0.5
		}
	}
	option = {
		name = fey_alignment.5.c
		trigger = { has_country_flag = fey_alignment_mead }
		if = {
			limit = { piety = 0.75 }
			add_piety = 0.1
		}
		if = {
			limit = { NOT = { piety = -0.75 }}
			add_piety = -0.1
		}
		hidden_effect = { clr_country_flag = fey_alignment_mead }
	}
}

country_event = { #Fey demands attention
	id = fey_alignment.6
	title = fey_alignment.6.t
	desc = fey_alignment.6.d
	picture = STREET_SPEECH_eventPicture
	
	is_triggered_only = yes
	
	trigger = {
		uses_piety = yes
	}
	
	mean_time_to_happen = {
		days = 1
	}
	
	option = {
		name = fey_alignment.6.a
		
		add_country_modifier = { name = "fey_alignment_attention1" duration = 3650 }
		add_piety = 0.1
	}
	option = {
		name = fey_alignment.6.b
	
		add_country_modifier = { name = "fey_alignment_attention2" duration = 3650 }
		add_piety = -0.1
	}
}

country_event = { #High Seelie Influence Good
	id = fey_alignment.7
	title = fey_alignment.7.t
	desc = fey_alignment.7.d
	picture = GOOD_WITH_MONARCH_eventPicture
	
	is_triggered_only = yes
	
	trigger = {
		uses_piety = yes
		piety = 0.75
	}
	
	mean_time_to_happen = {
		days = 1
	}
	
	immediate = {
		random_owned_area = {
			limit = {
				is_prosperous = no 
			}
			save_event_target_as = fey_high_seelie_good
		}
	}
	
	option = {
		name = fey_alignment.7.a
		
		event_target:fey_high_seelie_good = {
			add_prosperity = 100
		}
	}
	option = {
		name = fey_alignment.7.b
		
		add_country_modifier = { name = "fey_alignment_seeliemilitary_buff" duration = 9125 }
	}
}

country_event = { #High Unseelie Influence Good
	id = fey_alignment.8
	title = fey_alignment.8.t
	desc = fey_alignment.8.d
	picture = GOOD_WITH_MONARCH_eventPicture
	
	is_triggered_only = yes
	
	trigger = {
		uses_piety = yes
		NOT = { piety = -0.75 }
	}
	
	mean_time_to_happen = {
		days = 1
	}
	
	option = {
		name = fey_alignment.8.a
		
		define_general = {
			shock = 4
			fire = 2
			manuever = 4
			siege = 3
			trait = ruthless_personality 
			name = "Enthralled Gladewarden"
		}
	}
	option = {
		name = fey_alignment.8.b
		
		add_country_modifier = { name = "fey_alignment_unseeliemilitary_buff" duration = 9125 }
	}
}

country_event = { #Ruler PartyMutation
	id = fey_alignment.9
	title = fey_alignment.9.t
	desc = fey_alignment.9.d
	picture = KING_DOING_GREAT_eventPicture
	
	is_triggered_only = yes
	
	trigger = {
		uses_piety = yes
	}
	mean_time_to_happen = {
		days = 1
	}

	option = { #Seelie
		name = fey_alignment.9.a

		add_piety = 0.1
		hidden_effect = {
			country_event = { id = fey_alignment.10 days = 5 }
			random_list = {
				2 = {
					modifier = {
						factor = 0.75
						mil = 5
					}
					set_country_flag = fey_alignment_ruler_s1 
				}
				1 = {
					modifier = {
						factor = 0.25
						NOT = { dip = 3 }
					}
					set_country_flag = fey_alignment_ruler_s2
				}
				1 = {
					set_country_flag = fey_alignment_ruler_s3
				}
				1 = {
					set_country_flag = fey_alignment_ruler_s4
				}
				1 = {
					set_country_flag = fey_alignment_ruler_s5
				}
			}
		}
	}
	option = { #Unseelie
		name = fey_alignment.9.b

		add_piety = -0.1
		hidden_effect = {
			country_event = { id = fey_alignment.11 days = 5 }
			random_list = {
				2 = {
					modifier = {
						factor = 0.75
						mil = 5
					}
					set_country_flag = fey_alignment_ruler_u1
				}
				1 = {
					modifier = {
						factor = 0.25
						NOT = { mil = 3 }
					}
					set_country_flag = fey_alignment_ruler_u2
				}
				1 = {
					set_country_flag = fey_alignment_ruler_u3
				}
				1 = {
					set_country_flag = fey_alignment_ruler_u4
				}
				1 = {
					set_country_flag = fey_alignment_ruler_u5
				}
			}
		}
	}
}

country_event = { #Ruler PartyMutation Seelie
	id = fey_alignment.10
	title = fey_alignment.10.t
	desc = { #good
		trigger = { 
			OR = {
				has_country_flag = fey_alignment_ruler_s1
				has_country_flag = fey_alignment_ruler_s3
			}
		}
		desc = "fey_alignment.10.1"
	}
	desc = { #bad
		trigger = { 
			has_country_flag = fey_alignment_ruler_s2
			has_country_flag = fey_alignment_ruler_s4
			has_country_flag = fey_alignment_ruler_s5
		}
		desc = "fey_alignment.10.2"
	}
	picture = { #good
		trigger = {
			OR = {
				has_country_flag = fey_alignment_ruler_s1
				has_country_flag = fey_alignment_ruler_s3
			}
		}
		picture = GOOD_WITH_MONARCH_eventPicture
	}
	picture = { #bad
		trigger = {
			OR = {
				has_country_flag = fey_alignment_ruler_s2
				has_country_flag = fey_alignment_ruler_s4
				has_country_flag = fey_alignment_ruler_s5
			}
		}
		picture = BAD_WITH_MONARCH_eventPicture
	}
	
	is_triggered_only = yes
	
	trigger = {
		uses_piety = yes
	}
	mean_time_to_happen = {
		days = 1
	}

	option = {
		name = fey_alignment.10.a

		trigger = {
			has_country_flag = fey_alignment_ruler_s1
		}
		change_dip = 1
	}
	option = {
		name = fey_alignment.10.b
		trigger = {
			has_country_flag = fey_alignment_ruler_s2
		}
		change_dip = -1
	}
	option = {
		name = fey_alignment.10.c
		trigger = {
			has_country_flag = fey_alignment_ruler_s3
		}
		add_ruler_personality = fertile_personality
		add_prestige = 20
	}
	option = {
		name = fey_alignment.10.dd
		trigger = {
			has_country_flag = fey_alignment_ruler_s4
		}
		add_ruler_personality = babbling_buffoon_personality
	}
	option = {
		name = fey_alignment.10.e
		trigger = {
			has_country_flag = fey_alignment_ruler_s5
		}
		add_ruler_personality = drunkard_personality
	}
	option = {
		name = fey_alignment.10.f
		trigger = {
			has_country_flag = fey_alignment_mead
			NOT = {
				has_country_flag = fey_alignment_ruler_s1
				has_country_flag = fey_alignment_ruler_s3
			}
		}
		
		hidden_effect = { clr_country_flag = fey_alignment_mead }
	}
	after = {
		hidden_effect = {
			clr_country_flag = fey_alignment_ruler_s1
			clr_country_flag = fey_alignment_ruler_s2
			clr_country_flag = fey_alignment_ruler_s3
			clr_country_flag = fey_alignment_ruler_s4
			clr_country_flag = fey_alignment_ruler_s5
		}
	}
}
country_event = { #Ruler PartyMutation Unseelie
	id = fey_alignment.11
	title = fey_alignment.11.t
	desc = { #good
		trigger = { 
			OR = {
				has_country_flag = fey_alignment_ruler_u1
				has_country_flag = fey_alignment_ruler_u3
			}
		}
		desc = "fey_alignment.11.1"
	}
	desc = { #bad
		trigger = {
			OR = {
				has_country_flag = fey_alignment_ruler_u2
				has_country_flag = fey_alignment_ruler_u4
				has_country_flag = fey_alignment_ruler_u5
			}
		}
		desc = "fey_alignment.11.2"
	}
	picture = { #good
		trigger = {
			OR = {
				has_country_flag = fey_alignment_ruler_u1
				has_country_flag = fey_alignment_ruler_u3
			}
		}
		picture = GOOD_WITH_MONARCH_eventPicture
	}
	picture = { #bad
		trigger = {
			OR = {
				has_country_flag = fey_alignment_ruler_u2
				has_country_flag = fey_alignment_ruler_u4
				has_country_flag = fey_alignment_ruler_u5
			}
		}
		picture = BAD_WITH_MONARCH_eventPicture
	}
	
	is_triggered_only = yes
	
	trigger = {
		uses_piety = yes
	}
	mean_time_to_happen = {
		days = 1
	}

	option = {
		name = fey_alignment.11.a

		trigger = {
			has_country_flag = fey_alignment_ruler_u1
		}
		change_mil = 1
	}
	option = {
		name = fey_alignment.11.b
		trigger = {
			has_country_flag = fey_alignment_ruler_u2
		}
		change_mil = -1
	}
	option = {
		name = fey_alignment.11.c
		trigger = {
			has_country_flag = fey_alignment_ruler_u3
		}
		add_ruler_personality = careful_personality
	}
	option = {
		name = fey_alignment.11.dd
		trigger = {
			has_country_flag = fey_alignment_ruler_u4
		}
		add_ruler_personality = cruel_personality
	}
	option = {
		name = fey_alignment.11.e
		trigger = {
			has_country_flag = fey_alignment_ruler_u5
		}
		add_ruler_personality = obsessive_perfectionist_personality
	}
	option = {
		name = fey_alignment.11.f
		trigger = { has_country_flag = fey_alignment_mead }
		
		hidden_effect = { clr_country_flag = fey_alignment_mead }
	}
	after = {
		hidden_effect = {
			clr_country_flag = fey_alignment_ruler_u1
			clr_country_flag = fey_alignment_ruler_u2
			clr_country_flag = fey_alignment_ruler_u3
			clr_country_flag = fey_alignment_ruler_u4
			clr_country_flag = fey_alignment_ruler_u5
		}
	}
}
country_event = { #heir curse
	id = fey_alignment.12
	title = fey_alignment.12.t
	desc = fey_alignment.12.d
	picture = DEATH_OF_HEIR_eventPicture
	
	is_triggered_only = yes
	
	trigger = {
		uses_piety = yes
		has_heir = yes
	}
	mean_time_to_happen = {
		days = 1
	}

	immediate = {
		hidden_effect = {
			random_list = {
				60 = {
					set_country_flag = fey_alignment_heir_disfigure
				}
				39 = {
					set_country_flag = fey_alignment_heir_abducted
				}
				1 = {
					set_country_flag = fey_alignment_heir_race
				}
			}
		}
	}

	option = {
		name = fey_alignment.12.a

		if = {
			limit = { has_country_flag = fey_alignment_heir_disfigure }

			random_list = {
				1 = {
					decrease_heir_adm_effect = yes
				}
				1 = {
					decrease_heir_dip_effect = yes
				}
				1 = {
					decrease_heir_mil_effect = yes
				}
			}
		}
		if = {
			limit = { has_country_flag = fey_alignment_heir_abducted }

			hidden_effect = {
				root = {
					set_saved_name = {
						key = fey_alignment_heirpretender
						type = simple
						name = "[ROOT.Heir.GetName]"
						scope = ROOT
					}
				}
			}
			custom_tooltip = fey_alignment_abductedheirtooltip
			exile_heir_as = fey_alignment_abductedheir@ROOT
		}
		if = {
			limit = { has_country_flag = fey_alignment_heir_race }

			random_list = {
				1 = {
					trigger = { NOT = { heir_is_orc = yes } }
					random_list = {
						1 = {
							set_heir_culture = green_orc
						}
						1 = {
							set_heir_culture = gray_orc
						}
						1 = {
							set_heir_culture = black_orc
						}
					}
					decrease_heir_adm_effect = yes
					decrease_heir_dip_effect = yes
					change_heir_mil = 2
				}
				1 = {
					trigger = { NOT = { heir_is_goblin = yes } }
					random_list = {
						1 = {
							set_heir_culture = forest_goblin
						}
						1 = {
							set_heir_culture = cave_goblin
						}
						1 = {
							set_heir_culture = exodus_goblin
						}
					}
					decrease_heir_adm_effect = yes
					decrease_heir_dip_effect = yes
					change_heir_mil = 2
				}
				1 = {
					trigger = { NOT = { heir_is_troll = yes } }
					random_list = {
						1 = {
							set_heir_culture = fjord_troll
						}
						1 = {
							set_heir_culture = forest_troll
						}
					}
					decrease_heir_adm_effect = yes
					decrease_heir_dip_effect = yes
					change_heir_mil = 2 
				}
				1 = {
					trigger = { NOT = { heir_is_elven = yes } }
					random_list = {
						1 = {
							set_heir_culture = moon_elf
						}
						1 = {
							set_heir_culture = sun_elf
						}
						1 = {
							set_heir_culture = wood_elf
						}
					}
					add_heir_personality = immortal_personality
					increase_heir_adm_effect = yes
					increase_heir_dip_effect = yes
				}
			}
		}
	}
	option = {
		name = fey_alignment.12.b
		trigger = { has_country_flag = fey_alignment_mead }
		hidden_effect = { clr_country_flag = fey_alignment_mead }
	}
	after = {
		clr_country_flag = fey_alignment_heir_disfigure
		clr_country_flag = fey_alignment_heir_abducted
		clr_country_flag = fey_alignment_heir_race
	}
}

country_event = { #abducted heir returns
	id = fey_alignment.13
	title = fey_alignment.13.t
	desc = fey_alignment.13.d
	picture = CIVIL_WAR_eventPicture

	is_triggered_only = yes
	
	trigger = {
		uses_piety = yes
		has_heir = yes
		has_heir_flag = fey_alignment_heir_abducted
	}
	mean_time_to_happen = {
		days = 1
	}
	immediate = {
		hidden_effect = {
			random_owned_province = {
				limit = { is_state = yes }
				set_province_flag = fey_returned_heir
			}
		}
	}

	option = {
		name = fey_alignment.13.a

		set_heir = fey_alignment_abductedheir
		add_legitimacy = -20
		add_devotion = -10
		add_republican_tradition = -5
		add_prestige = -20
		add_piety = 0.1
	}
	option = {
		name = fey_alignment.13.b

		random_owned_province = {
			limit = {
				has_province_flag = fey_returned_heir
			}
			spawn_rebels = {
				type = pretender_rebels
				size = 3
				leader = fey_alignment_heirpretender
			}
		}
		random_list = {
			1 = { increase_heir_adm_effect = yes }
			1 = { increase_heir_dip_effect = yes }
			1 = { increase_heir_mil_effect = yes }
		}
		add_piety = -0.1
	}
	after = {
		random_owned_province = {
			limit = {
				has_province_flag = fey_returned_heir
			}
			clr_province_flag = fey_returned_heir
		}
		clear_saved_name = fey_alignment_heirpretender
	}
}

country_event = { #Gift and Heir abduction forever
	id = fey_alignment.14
	title = fey_alignment.14.t
	desc = fey_alignment.14.d
	picture = CIVIL_WAR_eventPicture

	is_triggered_only = yes
	
	trigger = {
		uses_piety = yes
	}
	mean_time_to_happen = {
		days = 1
	}

	option = { #Gifts are to be accepted graciously
		name = fey_alignment.14.a

		add_years_of_income = 0.25
		add_piety = 0.1
		hidden_effect = {
			set_country_flag = fey_alignment_giftheirabduction
		}
	}
	option = { #Gifts should be reciprocated in kind
		name = fey_alignment.14.b

		add_years_of_income = -0.1
		add_piety = -0.1
	}
}

country_event = {
	id = fey_alignment.15
	title = fey_alignment.15.t
	desc = fey_alignment.15.d
	picture = QUEEN_AND_MALE_HEIR_eventPicture

	is_triggered_only = yes
	
	trigger = {
		uses_piety = yes
		has_country_flag = fey_alignment_giftheirabduction
		has_heir = yes
	}
	mean_time_to_happen = {
		days = 1
	}

	option = { #deals must be fulfilled
		name = fey_alignment.15.a

		remove_heir = yes
		add_piety = 0.2
	}
	option = {
		name = fey_alignment.15.b

		add_legitimacy = -25
		add_devotion = -20
		add_republican_tradition = -10
		add_piety = -0.2
	}
	option = {
		name = fey_alignment.15.c
		trigger = { has_country_flag = fey_alignment_mead }
		hidden_effect = { clr_country_flag = fey_alignment_mead }
	}
	after = {
		clr_country_flag = fey_alignment_giftheirabduction
	}
}

country_event = { #fey beggar mead
	id = fey_alignment.16
	title = fey_alignment.16.t
	desc = fey_alignment.16.d
	picture = FAMINE_eventPicture

	is_triggered_only = yes
	
	trigger = {
		uses_piety = yes
		NOT = { has_country_flag = fey_alignment_mead }
	}
	mean_time_to_happen = {
		days = 1
	}
	
	option = { #give her money
		name = fey_alignment.16.a
		
		add_years_of_income = -0.1
		hidden_effect = {
			country_event = { id = fey_alignment.17 days = 30 } 
		}
	}
	option = { #ignore
		name = fey_alignment.16.b
		
		add_prestige = -5
		hidden_effect = {
			random_list = {
				50 = {
					random_list = {
						1 = {
							country_event = { id = fey_alignment.5 days = 30 }
						}
						1 = {
							country_event = { id = fey_alignment.12 days = 30 }
						}
					}
				}
				50 = {
				
				}
			}
		}
	}
	option = { #take her amulet
		name = fey_alignment.16.c
		
		random_list = {
			33 = {
				if = { 	
					limit = { NOT = { adm = 6 } }
					change_adm = 1
				}
				else = {
					add_adm_power = 25
				}
			}
			33 = {
				if = { 	
					limit = { NOT = { dip = 6 } }
					change_dip = 1
				}
				else = {
					add_dip_power = 25
				}
			}
			33 = {
				if = { 	
					limit = { NOT = { mil = 6 } }
					change_mil = 1
				}
				else = {
					add_mil_power = 25
				}
			}
		}
		hidden_effect = {
			random_list = {
				80 = {
					random_list = {
						1 = {
							country_event = { id = fey_alignment.5 days = 30 }
						}
						1 = {
							country_event = { id = fey_alignment.12 days = 30 }
						}
					}
				}
				20 = {
				
				}
			}
		}
	}

}

country_event = { #beggar mead reward
	id = fey_alignment.17
	title = fey_alignment.17.t
	desc = fey_alignment.17.d
	picture = GOOD_WITH_MONARCH_eventPicture

	is_triggered_only = yes
	
	trigger = {
	
	}
	mean_time_to_happen = {
		days = 1
	}
	
	option = {
		name = fey_alignment.17.a
		
		custom_tooltip = fey_mead_reward
		hidden_effect = {
			set_country_flag = fey_alignment_mead
		}
	}
}