

namespace = phoenix_empire

#Jexis' Conquest: Victory in Anbenncóst
country_event = {
	id = phoenix_empire.1
	title = phoenix_empire.1.t
	desc = phoenix_empire.1.d
	picture = CONQUEST_eventPicture
	
	is_triggered_only = yes
	major = yes
	
	option = {
		name = phoenix_empire.1.a
		ai_chance = {
			factor = 1
		}

		add_prestige = 33
		add_absolutism = 10
	}
}

#To the Sunset
country_event = {
	id = phoenix_empire.2
	title = phoenix_empire.2.t
	desc = phoenix_empire.2.d
	picture = COMET_SIGHTED_eventPicture
	
	is_triggered_only = yes
	
	option = {
		name = phoenix_empire.2.a
		ai_chance = {
			factor = 1
		}
		
		add_country_modifier = {
			name = phoenix_empire_sunset_empire
			duration = -1
		}
	}
}

#Cloudless Cannor
country_event = {
	id = phoenix_empire.3
	title = phoenix_empire.3.t
	desc = phoenix_empire.3.d
	picture = JESUTIS_IN_BRAZIL_eventPicture
	
	is_triggered_only = yes
	
	option = {
		name = phoenix_empire.3.a
		ai_chance = {
			factor = 1
		}
		
		add_adm_power = 100
		add_dip_power = 100
		add_mil_power = 100
	}
}

#No More Witch Kings
country_event = {
	id = phoenix_empire.4
	title = phoenix_empire.4.t
	desc = phoenix_empire.4.d
	picture = CITY_VIEW_eventPicture
	
	is_triggered_only = yes
	
	option = {
		name = phoenix_empire.4.a
		ai_chance = {
			factor = 1
		}
		
		add_country_modifier = {
			name = phoenix_empire_the_sun_over_the_white_walls
			duration = -1
		}
	}
}

#Outshine the Moon
country_event = {
	id = phoenix_empire.5
	title = phoenix_empire.5.t
	desc = phoenix_empire.5.d
	picture = DIPLOMACY_eventPicture
	
	is_triggered_only = yes
	
	option = {
		name = phoenix_empire.5.a
		ai_chance = {
			factor = 1
		}
		
		custom_tooltip = phoenix_empire_reunited_once_more_tt
		hidden_effect = {
			every_province = {
				limit = {
					NOT = {
						owned_by = ROOT
						is_core = ROOT
					}
					culture_group = elven
				}
				add_claim = ROOT
			}
		}
	}
}

#The Length of the Divenhal
country_event = {
	id = phoenix_empire.6
	title = phoenix_empire.6.t
	desc = phoenix_empire.6.d
	picture = SHIP_SAILING_eventPicture
	
	is_triggered_only = yes
	
	immediate = {
		if = {
			limit = {
				any_country = {
					capital_scope = { OR = { continent = north_america continent = south_america } }
					religion = bulwari_sun_cult
					any_owned_province = {
						has_port = yes
						NOT = { development = 15 }
					}
				}
			}
			random_country = {
				limit = {
					capital_scope = { OR = { continent = north_america continent = south_america } }
					religion = bulwari_sun_cult
					any_owned_province = {
						has_port = yes
					}
				}
				random_owned_province = {
					limit = { has_port = yes NOT = { development = 15 } }
					save_event_target_as = phoenix_empire_exclave
				}
			}
		}
		else_if = {
			limit = {
				any_country = {
					capital_scope = { OR = { continent = north_america continent = south_america } }
					any_owned_province = {
						has_port = yes
						NOT = { development = 15 }
					}
				}
			}
			random_country = {
				limit = {
					capital_scope = { OR = { continent = north_america continent = south_america } }
					any_owned_province = {
						has_port = yes
					}
				}
				random_owned_province = {
					limit = { has_port = yes NOT = { development = 15 } }
					save_event_target_as = phoenix_empire_exclave
				}
			}
		}
		else = {
			random_country = {
				limit = {
					capital_scope = { OR = { continent = north_america continent = south_america } }
					any_owned_province = {
						has_port = yes
					}
				}
				random_owned_province = {
					limit = { has_port = yes }
					save_event_target_as = phoenix_empire_exclave
				}
			}
		}
	}
	
	option = {
		name = phoenix_empire.6.a
		ai_chance = {
			factor = 1
		}
		
		event_target:phoenix_empire_exclave = {
			change_religion = bulwari_sun_cult
			if = {
				limit = { development = 15 }
				add_elven_minority_size_effect = yes
			}
			else = {
				change_culture = sun_elf
			}
			add_base_tax = 5
			add_base_production = 5
			add_base_manpower = 5
			add_core = ROOT
		}
	}
}

#Capital of the West
country_event = {
	id = phoenix_empire.7
	title = phoenix_empire.7.t
	desc = phoenix_empire.7.d
	picture = CULTURE_eventPicture
	
	is_triggered_only = yes
	
	option = {
		name = phoenix_empire.7.a
		ai_chance = {
			factor = 1
		}
		
		define_advisor = {
			type = court_mage
			name = "Vincen Arkwright"
			discount = yes
			skill = 3
			culture = anbenncoster
			religion = bulwari_sun_cult
			location = 8
		}
	}
}

#Effulgent Escann
country_event = {
	id = phoenix_empire.8
	title = phoenix_empire.8.t
	desc = phoenix_empire.8.d
	picture = JESUTIS_IN_BRAZIL_eventPicture
	
	is_triggered_only = yes
	
	option = {
		name = phoenix_empire.8.a
		ai_chance = {
			factor = 1
		}
		
		add_adm_power = 100
		add_dip_power = 100
		add_mil_power = 100
	}
}

#Don the Phoenix Crown
country_event = {
	id = phoenix_empire.9
	title = phoenix_empire.9.t
	desc = phoenix_empire.9.d
	picture = COURT_eventPicture
	
	is_triggered_only = yes
	
	option = {
		name = phoenix_empire.9.a
		ai_chance = {
			factor = 1
		}
		
		add_ruler_modifier = {
			name = phoenix_empire_mantle_of_the_conqueror
			duration = -1
		}
	}
}

#A Grand Celebration
country_event = {
	id = phoenix_empire.10
	title = phoenix_empire.10.t
	desc = phoenix_empire.10.d
	picture = COURT_eventPicture
	
	is_triggered_only = yes
	
	option = {
		name = phoenix_empire.10.a
		ai_chance = {
			factor = 1
		}
		
		take_estate_land_share_gigantic = { estate = all }
		add_absolutism = 20
	}
}

#Jaher's Inheritance
country_event = {
	id = phoenix_empire.11
	title = phoenix_empire.11.t
	desc = phoenix_empire.11.d
	picture = CITY_DEVELOPMENT_eventPicture
	
	is_triggered_only = yes
	
	option = {
		name = phoenix_empire.11.a
		ai_chance = {
			factor = 1
		}
		
		if = {
			limit = { is_emperor_of_china = yes }
			add_mandate = 30
		}
		else = {
			add_prestige = 50
		}
	}
}

#The Gulf of Rahen
country_event = {
	id = phoenix_empire.12
	title = phoenix_empire.12.t
	desc = phoenix_empire.12.d
	picture = GOOD_WITH_MONARCH_eventPicture
	
	is_triggered_only = yes
	
	option = {
		name = phoenix_empire.12.a
		ai_chance = {
			factor = 1
		}
		
		add_country_modifier = {
			name = phoenix_empire_the_burning_salahad
			duration = -1
		}
	}
}

#Sunny Salahad
country_event = {
	id = phoenix_empire.13
	title = phoenix_empire.13.t
	desc = phoenix_empire.13.d
	picture = JESUTIS_IN_BRAZIL_eventPicture
	
	is_triggered_only = yes
	
	option = {
		name = phoenix_empire.13.a
		ai_chance = {
			factor = 1
		}
		
		add_adm_power = 100
		add_dip_power = 100
		add_mil_power = 100
	}
}

#Long Lost Brothers
country_event = {
	id = phoenix_empire.14
	title = phoenix_empire.14.t
	desc = phoenix_empire.14.d
	picture = FEAST_eventPicture
	
	is_triggered_only = yes
	
	option = {
		name = phoenix_empire.14.a
		ai_chance = {
			factor = 1
		}
		
		define_advisor = {
			type = trader
			name = "Amarien Szel-Arawkelin"
			discount = yes
			skill = 3
			culture = sun_elf
			religion = bulwari_sun_cult
			location = 4963
		}
	}
}

#Radiant Rahen
country_event = {
	id = phoenix_empire.15
	title = phoenix_empire.15.t
	desc = phoenix_empire.15.d
	picture = JESUTIS_IN_BRAZIL_eventPicture
	
	is_triggered_only = yes
	
	option = {
		name = phoenix_empire.15.a
		ai_chance = {
			factor = 1
		}
		
		add_adm_power = 100
		add_dip_power = 100
		add_mil_power = 100
	}
}

#The Ruin of the Raj
country_event = {
	id = phoenix_empire.16
	title = phoenix_empire.16.t
	desc = phoenix_empire.16.d
	picture = COURT_eventPicture
	
	is_triggered_only = yes
	
	option = {
		name = phoenix_empire.16.a
		ai_chance = {
			factor = 1
		}
		
		add_prestige = 33
		add_absolutism = 10
	}
}

#Visiting the Oracle
country_event = {
	id = phoenix_empire.17
	title = phoenix_empire.17.t
	desc = phoenix_empire.17.d
	picture = PRAYING_eventPicture
	
	is_triggered_only = yes
	
	option = {
		name = phoenix_empire.17.a
		ai_chance = {
			factor = 1
		}
		
		#! Implement with the proper oracle system
	}
}

#To the Sunrise
country_event = {
	id = phoenix_empire.18
	title = phoenix_empire.18.t
	desc = phoenix_empire.18.d
	picture = COMET_SIGHTED_eventPicture
	
	is_triggered_only = yes
	
	option = {
		name = phoenix_empire.18.a
		ai_chance = {
			factor = 1
		}
		
		add_country_modifier = {
			name = phoenix_empire_sunrise_empire
			duration = -1
		}
	}
}

#Heliophilous Haless
country_event = {
	id = phoenix_empire.19
	title = phoenix_empire.19.t
	desc = phoenix_empire.19.d
	picture = JESUTIS_IN_BRAZIL_eventPicture
	
	is_triggered_only = yes
	
	option = {
		name = phoenix_empire.19.a
		ai_chance = {
			factor = 1
		}
		
		add_adm_power = 100
		add_dip_power = 100
		add_mil_power = 100
	}
}

#The Exchange of $YEAR$
country_event = {
	id = phoenix_empire.20
	title = phoenix_empire.20.t
	desc = phoenix_empire.20.d
	picture = JESUTIS_IN_BRAZIL_eventPicture
	
	is_triggered_only = yes
	
	option = {
		name = phoenix_empire.20.a
		ai_chance = {
			factor = 1
		}
		
		random_list = {
			1 = { add_adm_tech = 1 }
			1 = { add_dip_tech = 1 }
			1 = { add_mil_tech = 1 }
		}
	}
}

#The World at my Feet
country_event = {
	id = phoenix_empire.21
	title = phoenix_empire.21.t
	desc = phoenix_empire.21.d
	picture = JESUTIS_IN_BRAZIL_eventPicture
	
	is_triggered_only = yes
	
	option = {
		name = phoenix_empire.21.a
		ai_chance = {
			factor = 1
		}
		
		add_country_modifier = {
			name = phoenix_empire_the_centre_of_the_world
			duration = 17250
		}
	}
}


#############################
###  Palace Construction  ###
#############################

#Choose palace size
country_event = {
	id = phoenix_empire.101
	title = phoenix_empire.101.t
	desc = phoenix_empire.101.d
	picture = CITY_DEVELOPMENT_eventPicture
	
	is_triggered_only = yes
	
	option = {
		name = phoenix_empire.101.a
		ai_chance = {
			factor = 1
		}
		
		custom_tooltip = phoenix_empire_choose_palace_size_normal_tt
	}
	option = {
		name = phoenix_empire.101.b
		ai_chance = {
			factor = 1
		}
		
		add_treasury = -200
		custom_tooltip = phoenix_empire_choose_palace_size_large_tt
		hidden_effect = {
			capital_scope = { set_province_flag = phoenix_empire_palace_large }
		}
	}
	option = {
		name = phoenix_empire.101.c
		ai_chance = {
			factor = 1
		}
		
		add_treasury = -400
		custom_tooltip = phoenix_empire_choose_palace_size_massive_tt
		hidden_effect = {
			capital_scope = { set_province_flag = phoenix_empire_palace_massive }
		}
	}
}
#Choose palace modules
country_event = {
	id = phoenix_empire.102
	title = phoenix_empire.102.t
	desc = phoenix_empire.102.d
	picture = CITY_DEVELOPMENT_eventPicture
	
	is_triggered_only = yes
	
	trigger = {
		check_variable = { which = phoenix_empire_palace_wings value = 1 }
		capital_scope = { has_construction = phoenix_empire_palace_build }
	}
	
	option = {
		name = phoenix_empire.102.a
		trigger = { capital_scope = { NOT = { has_province_flag = phoenix_empire_palace_library_flag } } }
		ai_chance = {
			factor = 1
		}
		
		custom_tooltip = phoenix_empire_palace_wing_tt
		capital_scope = {
			tooltip = {
				add_permanent_province_modifier = {
					name = phoenix_empire_palace_library
					duration = -1
				}
			}
		}
		hidden_effect = {
			capital_scope = { set_province_flag = phoenix_empire_palace_library_flag }
		}
	}
	option = {
		name = phoenix_empire.102.b
		trigger = { capital_scope = { NOT = { has_province_flag = phoenix_empire_palace_ballroom_flag } } }
		ai_chance = {
			factor = 1
		}
		
		custom_tooltip = phoenix_empire_palace_wing_tt
		capital_scope = {
			tooltip = {
				add_permanent_province_modifier = {
					name = phoenix_empire_palace_ballroom
					duration = -1
				}
			}
		}
		hidden_effect = {
			capital_scope = { set_province_flag = phoenix_empire_palace_ballroom_flag }
		}
	}
	option = {
		name = phoenix_empire.102.c
		trigger = { capital_scope = { NOT = { has_province_flag = phoenix_empire_palace_laboratory_flag } } }
		ai_chance = {
			factor = 1
		}
		
		custom_tooltip = phoenix_empire_palace_wing_tt
		capital_scope = {
			tooltip = {
				add_permanent_province_modifier = {
					name = phoenix_empire_palace_laboratory
					duration = -1
				}
			}
		}
		hidden_effect = {
			capital_scope = { set_province_flag = phoenix_empire_palace_laboratory_flag }
		}
	}
	option = {
		name = phoenix_empire.102.dd
		trigger = { capital_scope = { NOT = { has_province_flag = phoenix_empire_palace_apartments_flag } } }
		ai_chance = {
			factor = 1
		}
		
		custom_tooltip = phoenix_empire_palace_wing_tt
		capital_scope = {
			tooltip = {
				add_permanent_province_modifier = {
					name = phoenix_empire_palace_apartments
					duration = -1
				}
			}
		}
		hidden_effect = {
			capital_scope = { set_province_flag = phoenix_empire_palace_apartments_flag }
		}
	}
	option = {
		name = phoenix_empire.102.e
		trigger = { capital_scope = { NOT = { has_province_flag = phoenix_empire_palace_bazaar_flag } } }
		ai_chance = {
			factor = 1
		}
		
		custom_tooltip = phoenix_empire_palace_wing_tt
		capital_scope = {
			tooltip = {
				add_permanent_province_modifier = {
					name = phoenix_empire_palace_bazaar
					duration = -1
				}
			}
		}
		hidden_effect = {
			capital_scope = { set_province_flag = phoenix_empire_palace_bazaar_flag }
		}
	}
	option = {
		name = phoenix_empire.102.f
		trigger = { capital_scope = { NOT = { has_province_flag = phoenix_empire_palace_stables_flag } } }
		ai_chance = {
			factor = 1
		}
		
		custom_tooltip = phoenix_empire_palace_wing_tt
		capital_scope = {
			tooltip = {
				add_permanent_province_modifier = {
					name = phoenix_empire_palace_stables
					duration = -1
				}
			}
		}
		hidden_effect = {
			capital_scope = { set_province_flag = phoenix_empire_palace_stables_flag }
		}
	}
	option = {
		name = phoenix_empire.102.g
		trigger = { capital_scope = { NOT = { has_province_flag = phoenix_empire_palace_treasury_flag } } }
		ai_chance = {
			factor = 1
		}
		
		custom_tooltip = phoenix_empire_palace_wing_tt
		capital_scope = {
			tooltip = {
				add_permanent_province_modifier = {
					name = phoenix_empire_palace_treasury
					duration = -1
				}
			}
		}
		hidden_effect = {
			capital_scope = { set_province_flag = phoenix_empire_palace_treasury_flag }
		}
	}
	option = {
		name = phoenix_empire.102.h
		trigger = { capital_scope = { NOT = { has_province_flag = phoenix_empire_palace_temple_flag } } }
		ai_chance = {
			factor = 1
		}
		
		custom_tooltip = phoenix_empire_palace_wing_tt
		capital_scope = {
			tooltip = {
				add_permanent_province_modifier = {
					name = phoenix_empire_palace_temple
					duration = -1
				}
			}
		}
		hidden_effect = {
			capital_scope = { set_province_flag = phoenix_empire_palace_temple_flag }
		}
	}
	
	after = {
		change_variable = { which = phoenix_empire_palace_wings value = -1 }
		country_event = { id = phoenix_empire.102 days = 1 }
	}
}
#Choose main architectural feature
country_event = {
	id = phoenix_empire.103
	title = phoenix_empire.103.t
	desc = phoenix_empire.103.d
	picture = CITY_DEVELOPMENT_eventPicture
	
	is_triggered_only = yes
	
	option = {
		name = phoenix_empire.103.a
		ai_chance = {
			factor = 1
		}
		
		custom_tooltip = phoenix_empire_choose_palace_architectural_tt
		capital_scope = {
			tooltip = {
				add_permanent_province_modifier = {
					name = phoenix_empire_palace_dome
					duration = -1
				}
			}
		}
		hidden_effect = {
			capital_scope = { set_province_flag = phoenix_empire_palace_dome_flag }
		}
	}
	option = {
		name = phoenix_empire.103.b
		ai_chance = {
			factor = 1
		}
		
		custom_tooltip = phoenix_empire_choose_palace_architectural_tt
		capital_scope = {
			tooltip = {
				add_permanent_province_modifier = {
					name = phoenix_empire_palace_windows
					duration = -1
				}
			}
		}
		hidden_effect = {
			capital_scope = { set_province_flag = phoenix_empire_palace_windows_flag }
		}
	}
	option = {
		name = phoenix_empire.103.c
		ai_chance = {
			factor = 1
		}
		
		custom_tooltip = phoenix_empire_choose_palace_architectural_tt
		capital_scope = {
			tooltip = {
				add_permanent_province_modifier = {
					name = phoenix_empire_palace_wall
					duration = -1
				}
			}
		}
		hidden_effect = {
			capital_scope = { set_province_flag = phoenix_empire_palace_wall_flag }
		}
	}
}
#Choose palace furnishings
country_event = {
	id = phoenix_empire.104
	title = phoenix_empire.104.t
	desc = phoenix_empire.104.d
	picture = CITY_DEVELOPMENT_eventPicture
	
	is_triggered_only = yes
	
	option = {
		name = phoenix_empire.104.a
		ai_chance = {
			factor = 1
		}
		
		custom_tooltip = phoenix_empire_choose_palace_furnishings_tt
		capital_scope = {
			tooltip = {
				add_permanent_province_modifier = {
					name = phoenix_empire_palace_furnishing_imperial
					duration = -1
				}
			}
		}
		hidden_effect = {
			capital_scope = { set_province_flag = phoenix_empire_palace_furnishing_imperial_flag }
		}
	}
	option = {
		name = phoenix_empire.104.b
		ai_chance = {
			factor = 1
		}
		
		custom_tooltip = phoenix_empire_choose_palace_furnishings_tt
		capital_scope = {
			tooltip = {
				add_permanent_province_modifier = {
					name = phoenix_empire_palace_furnishing_multicultural
					duration = -1
				}
			}
		}
		hidden_effect = {
			capital_scope = { set_province_flag = phoenix_empire_palace_furnishing_multicultural_flag }
		}
	}
}
#Choose palace gardens
country_event = {
	id = phoenix_empire.105
	title = phoenix_empire.105.t
	desc = phoenix_empire.105.d
	picture = CITY_DEVELOPMENT_eventPicture
	
	is_triggered_only = yes
	
	option = {
		name = phoenix_empire.105.a
		ai_chance = {
			factor = 1
		}
		
		custom_tooltip = phoenix_empire_choose_palace_gardens_tt
		capital_scope = {
			tooltip = {
				add_permanent_province_modifier = {
					name = phoenix_empire_palace_gardens_huntinggrounds
					duration = -1
				}
			}
		}
		hidden_effect = {
			capital_scope = { set_province_flag = phoenix_empire_palace_gardens_huntinggrounds_flag }
		}
	}
	option = {
		name = phoenix_empire.105.b
		ai_chance = {
			factor = 1
		}
		
		custom_tooltip = phoenix_empire_choose_palace_gardens_tt
		capital_scope = {
			tooltip = {
				add_permanent_province_modifier = {
					name = phoenix_empire_palace_gardens_paradisial
					duration = -1
				}
			}
		}
		hidden_effect = {
			capital_scope = { set_province_flag = phoenix_empire_palace_gardens_paradisial_flag }
		}
	}
	option = {
		name = phoenix_empire.105.c
		ai_chance = {
			factor = 1
		}
		
		custom_tooltip = phoenix_empire_choose_palace_gardens_tt
		capital_scope = {
			tooltip = {
				add_permanent_province_modifier = {
					name = phoenix_empire_palace_gardens_watergardens
					duration = -1
				}
			}
		}
		hidden_effect = {
			capital_scope = { set_province_flag = phoenix_empire_palace_gardens_watergardens_flag }
		}
	}
	option = {
		name = phoenix_empire.105.c
		ai_chance = {
			factor = 1
		}
		
		custom_tooltip = phoenix_empire_choose_palace_gardens_tt
		capital_scope = {
			tooltip = {
				add_permanent_province_modifier = {
					name = phoenix_empire_palace_gardens_statues
					duration = -1
				}
			}
		}
		hidden_effect = {
			capital_scope = { set_province_flag = phoenix_empire_palace_gardens_statues_flag }
		}
	}
}

#Construction completed event
province_event = {
	id = phoenix_empire.106
	title = phoenix_empire.106.t
	desc = phoenix_empire.106.d
	picture = CITY_DEVELOPMENT_eventPicture
	
	is_triggered_only = yes
	
	option = {
		name = phoenix_empire.106.a
		ai_chance = {
			factor = 1
		}
		
		add_prestige = 25
		add_splendor = 400
	}
}

