
############################################################################
# Meritocracy Events
# Written by Henrik Lohmander
############################################################################

namespace = meritocracy_events

#Expand the Examinations
country_event = {
	id = meritocracy_events.1
	title = "meritocracy_events.1.t"
	desc = "meritocracy_events.1.d"
	picture = IMPERIAL_EXAMINATION_eventPicture
	
	trigger = {
		has_dlc = "Mandate of Heaven"
		is_emperor_of_china = yes
		NOT = { meritocracy = 80 }
	}
	
	is_triggered_only = yes
	
	mean_time_to_happen = {
		days = 1
	}
	
	
	option = {		# 
		name = "meritocracy_events.1.a"
		add_meritocracy_large_effect = yes
		add_corruption = 1
	}
	option = {		# 
		name = "meritocracy_events.1.b"
		add_prestige = 10
	}
	
}

#Virtues of the Examination System
country_event = {	
	id = meritocracy_events.2
	title = "meritocracy_events.2.t"
	desc = "meritocracy_events.2.d"
	picture = IMPERIAL_EXAMINATION_eventPicture
	
	trigger = {
		has_dlc = "Mandate of Heaven"
		is_emperor_of_china = yes
	}
	
	is_triggered_only = yes
	
	mean_time_to_happen = {
		days = 1
	}
	
	
	option = {		# Excellent
		name = "meritocracy_events.2.a"
		add_meritocracy_effect = yes
	}
	
}

# A new Senior Grand Secretary
country_event = {
	
	id = meritocracy_events.3
	title = "meritocracy_events.3.t"
	desc = "meritocracy_events.3.d"
	picture = MERITOCRACY_eventPicture
	
	trigger = {
		has_dlc = "Mandate of Heaven"
		is_emperor_of_china = yes
	}
	
	is_triggered_only = yes
	
	mean_time_to_happen = {
		days = 1
	}
	
	immediate = {
		hidden_effect = {
			if = {
				limit = {
					NOT = { meritocracy = 50 }
				}
				random_list = {
					18 = { 
						set_country_flag = corrupt_grand_secretary 
					}
					18 = {
						set_country_flag = incompetent_grand_secretary
					}
					18 = {
						set_country_flag = plotting_grand_secretary
					}
					18 = {
						set_country_flag = impopular_grand_secretary
					}
					6 = {
						set_country_flag = efficient_grand_secretary
					}
					6 = {
						set_country_flag = incorruptible_grand_secretary
					}
					6 = {
						set_country_flag = scholarly_grand_secretary
					}
					6 = {
						set_country_flag = loyal_grand_secretary
					}
				}
			}
			if = {
				limit = {
					meritocracy = 50
					NOT = { meritocracy = 80 }
				}
				random_list = {
					12 = { 
						set_country_flag = corrupt_grand_secretary 
					}
					12 = {
						set_country_flag = incompetent_grand_secretary
					}
					12 = {
						set_country_flag = plotting_grand_secretary
					}
					12 = {
						set_country_flag = impopular_grand_secretary
					}
					12 = {
						set_country_flag = efficient_grand_secretary
					}
					12 = {
						set_country_flag = incorruptible_grand_secretary
					}
					12 = {
						set_country_flag = scholarly_grand_secretary
					}
					12 = {
						set_country_flag = loyal_grand_secretary
					}
				}
			}
			if = {
				limit = {
					meritocracy = 80
				}
				random_list = {
					6 = { 
						set_country_flag = corrupt_grand_secretary 
					}
					6 = {
						set_country_flag = incompetent_grand_secretary
					}
					6 = {
						set_country_flag = plotting_grand_secretary
					}
					6 = {
						set_country_flag = impopular_grand_secretary
					}
					18 = {
						set_country_flag = efficient_grand_secretary
					}
					18 = {
						set_country_flag = incorruptible_grand_secretary
					}
					18 = {
						set_country_flag = scholarly_grand_secretary
					}
					18 = {
						set_country_flag = loyal_grand_secretary
					}
				}
			}
		}
	}
	
	option = {		# His corruption will spread to all parts of the administration.
		name = "meritocracy_events.3.a"
		trigger = { has_country_flag = corrupt_grand_secretary }
		clr_country_flag = corrupt_grand_secretary
		add_corruption = 1
	}
	option = {		# His incompetence will filter down to all officials.
		name = "meritocracy_events.3.b"
		trigger = { has_country_flag = incompetent_grand_secretary }
		clr_country_flag = incompetent_grand_secretary
		reduce_meritocracy_effect = yes
	}
	option = {		# His incessant plotting will hurt the country.
		name = "meritocracy_events.3.c"
		trigger = { has_country_flag = plotting_grand_secretary }
		clr_country_flag = plotting_grand_secretary
		add_dip_power = -50
	}
	option = {		# His many enemies will hamper our government.
		name = "meritocracy_events.3.dd"
		trigger = { has_country_flag = impopular_grand_secretary }
		clr_country_flag = impopular_grand_secretary
		reduce_mandate_effect = yes
	}
	option = {		# His efficiency will filter down to all levels.
		name = "meritocracy_events.3.e"
		trigger = { has_country_flag = efficient_grand_secretary }
		clr_country_flag = efficient_grand_secretary
		add_meritocracy_effect = yes
	}
	option = {		# His ethics will spread to all parts of the administration.
		name = "meritocracy_events.3.f"
		trigger = { has_country_flag = incorruptible_grand_secretary }
		clr_country_flag = incorruptible_grand_secretary
		add_corruption = -1
	}
	option = {		# His learned scholarship is an example to us all.
		name = "meritocracy_events.3.g"
		trigger = { has_country_flag = scholarly_grand_secretary }
		clr_country_flag = scholarly_grand_secretary
		add_adm_power = 10
		add_mil_power = 10
		add_dip_power = 10
	}
	option = {		# His loyalty will be an inspiration to others.
		name = "meritocracy_events.3.h"
		trigger = { has_country_flag = loyal_grand_secretary }
		clr_country_flag = loyal_grand_secretary
		add_mandate_effect = yes
	}
}

#Decay of the Examination System
country_event = {
	
	id = meritocracy_events.4
	title = "meritocracy_events.4.t"
	desc = "meritocracy_events.4.d"
	picture = IMPERIAL_EXAMINATION_eventPicture
	
	trigger = {
		has_dlc = "Mandate of Heaven"
		is_emperor_of_china = yes
	}
	
	is_triggered_only = yes
	
	mean_time_to_happen = {
		days = 1
	}
	
	
	option = {		# 
		name = "meritocracy_events.4.a"
		reduce_meritocracy_effect = yes
	}
}

#Corruption in the Examination System
#Corruption seeps into the Examination System. Fight it or take advantage of it.
country_event = {
	id = meritocracy_events.5
	title = "meritocracy_events.5.t"
	desc = "meritocracy_events.5.d"
	picture = MERITOCRACY_eventPicture
	
	trigger ={
		has_dlc = "Mandate of Heaven"
		is_emperor_of_china = yes
		corruption = 1
	}
	
	is_triggered_only = yes
	
	mean_time_to_happen = {
		days = 1
	}
	
	immediate = {
		hidden_effect = {
			random_list = {
				25 = { set_country_flag = trader_bribe }
				25 = { set_country_flag = diplomat_bribe }
				25 = { set_country_flag = treasurer_bribe }
				25 = { set_country_flag = master_of_mint_bribe }
			}
		}
	}
	
	option = {		# 
		name = "meritocracy_events.5.a"
		reduce_meritocracy_effect = yes
		add_corruption = -1
	}
	option = {		# 
		name = "meritocracy_events.5.b"
		reduce_meritocracy_effect = yes
		trigger_switch = {
			on_trigger = has_country_flag
			trader_bribe = {
				define_advisor = {
					skill = 3
					type = trader
					religion = confucianism
					discount = yes
				}
				clr_country_flag = trader_bribe
			}
			diplomat_bribe = {
				define_advisor = {
					skill = 3
					type = diplomat
					religion = confucianism
					discount = yes
				}
				clr_country_flag = diplomat_bribe
			}
			treasurer_bribe = {
				define_advisor = {
					skill = 3
					type = treasurer
					religion = confucianism
					discount = yes
				}
				clr_country_flag = treasurer_bribe
			}
			master_of_mint_bribe = {
				define_advisor = {
					skill = 3
					type = master_of_mint
					religion = confucianism
					discount = yes
				}
				clr_country_flag = master_of_mint_bribe
			}
		}
	}
	
}